[
    {"name":"Home", "link":"/"},
    {"name":"Products", "link":"/products"},
    {"name":"Login", "link":"/login"},
    {"name":"Registration", "link":"/registration"},
    {"name":"Contacts", "link":"/contacts"}
]